Obtenir les cartes en fonction de la localisation en métropole ou dans les DROM — get_map • COGiter
…
#> Warning: argument is not an atomic vector; coercing
#> Warning: argument is not an atomic vector; coercing
#> Warning: longer object length is not a multiple of shorter object length
#> Warning: argument is not an atomic vector; coercing
#> Warning: argument is not an atomic vector; coercing
#> Warning: argument is not an atomic vector; coercing
#> Warning: argument is not an atomic vector; coercing
#> Warning: argument is not an atomic vector; coercing
#> $com_geo
#> Simple feature collection with 34836 features and 2 fields
#> Geometry type: GEOMETRY
#> Dimension:     XY
#> Bounding box:  xmin: 99040 ymin: 6049681 xmax: 1242444 ymax: 7110479
#> Projected CRS: RGF93 / Lambert-93
#> # A tibble: 34,836 x 3
#>    DEPCOM     AREA                                                      geometry
#>    <fct>     [m^2]                                            <MULTIPOLYGON [m]>
#>  1 01001  15737871 (((846985.3 6564105, 846995.7 6564208, 847015.2 6564655, 847…
#>  2 01002   9112278 (((886026.1 6548175, 886157.9 6548496, 886285.3 6548697, 886…
#>  3 01004  24784212 (((884889.8 6539631, 884822.4 6539610, 884795.7 6539615, 884…
#>  4 01005  16004376 (((845947 6547998, 846057.5 6548051, 846074.5 6548052, 84666…
#>  5 01006   6092798 (((901335.5 6521127, 901401.1 6521152, 901549.8 6521169, 901…
#>  6 01007  33717139 (((886026.1 6548175, 886141.6 6548106, 886188.1 6548070, 886…
#>  7 01008   5081379 (((878932.6 6540739, 879047.1 6540688, 879288.2 6540766, 879…
#>  8 01009   6930424 (((905769.6 6521658, 905734.7 6521678, 905713.8 6521711, 905…
#>  9 01010  29617065 (((913981.3 6535875, 914037.1 6536215, 914046.2 6536393, 914…
#> 10 01011  15140592 (((903239.9 6568380, 903245 6568389, 903322.7 6568716, 90323…
#> # … with 34,826 more rows
#> 
#> $epci_geo
#> Simple feature collection with 1231 features and 2 fields
#> Geometry type: GEOMETRY
#> Dimension:     XY
#> Bounding box:  xmin: 111367.9 ymin: 6049681 xmax: 1242444 ymax: 7110479
#> Projected CRS: RGF93 / Lambert-93
#> # A tibble: 1,231 x 3
#>    EPCI          AREA                                                   geometry
#>    <fct>        [m^2]                                              <POLYGON [m]>
#>  1 2000001… 150696248 ((966748.4 6552733, 966755.8 6552381, 966730.4 6551740, 9…
#>  2 2000004… 327033526 ((310698.9 6711370, 309865.1 6712477, 309769.4 6712376, 3…
#>  3 2000005… 105210176 ((748496.8 6817507, 748719.7 6818137, 748608.2 6818254, 7…
#>  4 2000006… 150413311 ((836207.1 6345747, 836195.7 6345851, 836197.2 6345973, 8…
#>  5 2000008… 342468283 ((631434.7 6721265, 631378 6721142, 631296.9 6720920, 631…
#>  6 2000009… 204165930 ((864723.7 6673592, 864701.5 6673591, 864660 6673555, 864…
#>  7 2000009… 974277003 ((657974.2 6689616, 658009.5 6689367, 658084.8 6689146, 6…
#>  8 2000048… 408046364 ((1005237 6278923, 1005251 6278705, 1005139 6278186, 1005…
#>  9 2000059… 417855138 ((604602.7 6734013, 604749 6734098, 605124.3 6734242, 605…
#> 10 2000059… 328763775 ((980306.8 6808608, 980228.7 6808502, 980198.4 6808427, 9…
#> # … with 1,221 more rows
#> 
#> $dep_geo
#> Simple feature collection with 96 features and 2 fields
#> Geometry type: GEOMETRY
#> Dimension:     XY
#> Bounding box:  xmin: 99040 ymin: 6049681 xmax: 1242444 ymax: 7110479
#> Projected CRS: RGF93 / Lambert-93
#> # A tibble: 96 x 3
#>    DEP         AREA                                                     geometry
#>    <fct>      [m^2]                                                <POLYGON [m]>
#>  1 01    5773773857 ((904448.6 6504924, 904395.9 6505018, 904252.4 6505282, 904…
#>  2 02    7418972784 ((733174.4 6861885, 733166.1 6861912, 732924.7 6862170, 732…
#>  3 03    7365259270 ((754951.6 6541859, 754836.1 6541737, 754334 6541292, 75434…
#>  4 04    6993793070 ((946374.1 6293789, 946188.4 6293686, 946082.4 6293625, 946…
#>  5 05    5685308934 ((923049.9 6349816, 922918.4 6349761, 922468 6349539, 92243…
#>  6 06    4291617476 ((1018318 6276621, 1018325 6276578, 1018381 6275907, 101838…
#>  7 07    5562045799 ((802811.9 6355587, 802576.9 6355227, 802267.4 6354729, 802…
#>  8 08    5253130973 ((805851.6 6909444, 805657 6909338, 805527.8 6909247, 80533…
#>  9 09    4921753472 ((576353.1 6173801, 576341.6 6173825, 576130.4 6173783, 575…
#> 10 10    6021833414 ((796986.4 6761731, 797037.4 6761658, 797073 6761560, 79708…
#> # … with 86 more rows
…
